Laboratorium TEXT - laboratorium 4
…
verne_words <- v %>%
  unnest_tokens(word, text) %>%
  count(title, word, sort = TRUE)

total_words <- verne_words %>%
  group_by(title) %>%
  summarise(total = sum(n))

verne_words %<>% left_join(total_words)

## Joining, by = "title"

verne_words

## # A tibble: 25,167 x 4
##    title                                           word      n  total
##    <chr>                                           <chr> <int>  <int>
##  1 The Mysterious Island                           the   17003 194300
##  2 From the Earth to the Moon; and, Round the Moon the    7794  92024
##  3 The Mysterious Island                           of     6708 194300
##  4 The Mysterious Island                           to     5403 194300
##  5 The Mysterious Island                           and    5183 194300
##  6 Around the World in Eighty Days                 the    4713  63831
##  7 From the Earth to the Moon; and, Round the Moon of     3973  92024
##  8 The Mysterious Island                           a      3828 194300
##  9 The Mysterious Island                           was    3330 194300
## 10 The Mysterious Island                           in     2895 194300
## # ... with 25,157 more rows

Majc te dane, w kadej grupie (tzn w dla kadej ksizki) moemy 
otrzyma zarwno rang sw - od najczsciej do najrzadziej 
wystpujcych oraz ich czstoc:

# PRZYKAD 4.3

verne_freq <- verne_words %>%
  group_by(title) %>%
  mutate(rank = row_number(), freq = n / total)

verne_freq

## # A tibble: 25,167 x 6
## # Groups:   title [3]
##    title                                   word      n  total  rank   freq
##    <chr>                                   <chr> <int>  <int> <int>  <dbl>
##  1 The Mysterious Island                   the   17003 194300     1 0.0875
##  2 From the Earth to the Moon; and, Round. the    7794  92024     1 0.0847
##  3 The Mysterious Island                   of     6708 194300     2 0.0345
##  4 The Mysterious Island                   to     5403 194300     3 0.0278
##  5 The Mysterious Island                   and    5183 194300     4 0.0267
##  6 Around the World in Eighty Days         the    4713  63831     1 0.0738
##  7 From the Earth to the Moon; and, Round. of     3973  92024     2 0.0432
##  8 The Mysterious Island                   a      3828 194300     5 0.0197
##  9 The Mysterious Island                   was    3330 194300     6 0.0171
## 10 The Mysterious Island                   in     2895 194300     7 0.0149
## # ... with 25,157 more rows
…
przy czym zwykle 0<β<10<β<1.

Zbir do testowania prawa Heapa uda nam sie uzyskac w doc prosty sposb -- uyjemy wygodnej funkcji duplicated(), ktra zwraca fasz, gdy dany token pojawi si ju we wczeniejszych elementach wektora:

# PRZYKAD 4.9

verne_heaps <- v %>% 
  unnest_tokens(word, text) %>% 
  group_by(title) %>% 
  mutate(M = row_number(), V = cumsum(!duplicated(word)))

verne_heaps

## # A tibble: 350,155 x 4
## # Groups:   title [3]
##    title                                           word      M     V
##    <chr>                                           <chr> <int> <int>
##  1 From the Earth to the Moon; and, Round the Moon from      1     1
##  2 From the Earth to the Moon; and, Round the Moon the       2     2
##  3 From the Earth to the Moon; and, Round the Moon earth     3     3
##  4 From the Earth to the Moon; and, Round the Moon to        4     4
##  5 From the Earth to the Moon; and, Round the Moon the       5     4
##  6 From the Earth to the Moon; and, Round the Moon moon      6     5
##  7 From the Earth to the Moon; and, Round the Moon by        7     6
##  8 From the Earth to the Moon; and, Round the Moon jules     8     7
##  9 From the Earth to the Moon; and, Round the Moon verne     9     8
## 10 From the Earth to the Moon; and, Round the Moon table    10     9
## # ... with 350,145 more rows
…
# PRZYKAD 4.11

make.lm <- function(data, threshold) {
  data %>%
    filter(M > 10 & M < threshold) %>%
    summarise(th = threshold, A = lm(log(V) ~ log(M))$coefficients[1], beta = lm(log(V) ~ log(M))$coefficients[2])
}

threshold <- seq(100, 20000, 100)

lm.res <- do.call(rbind, lapply(threshold, make.lm, data = verne_heaps))
lm.res

## # A tibble: 600 x 4
##    title                                              th       A  beta
##    <chr>                                           <dbl>   <dbl> <dbl>
##  1 Around the World in Eighty Days                   100 0.333   0.841
##  2 From the Earth to the Moon; and, Round the Moon   100 0.264   0.850
##  3 The Mysterious Island                             100 0.0662  0.928
##  4 Around the World in Eighty Days                   200 0.368   0.832
##  5 From the Earth to the Moon; and, Round the Moon   200 0.00704 0.922
##  6 The Mysterious Island                             200 0.153   0.905
##  7 Around the World in Eighty Days                   300 0.383   0.829
##  8 From the Earth to the Moon; and, Round the Moon   300 0.0769  0.905
##  9 The Mysterious Island                             300 0.209   0.891
## 10 Around the World in Eighty Days                   400 0.415   0.821
## # ... with 590 more rows
…
