Laboratorium TEXT - laboratorium 5
…
load("v.data")

Wykonujemy podobne operacje, jak na poprzednich zajciach, tzn. 
zliczamy poszczeglne sowa w kadej z trzech ksiek i dodatkowo 
dokadamy cakowita liczb sw

# PRZYKAD 5.2

verne_bigrams <- v %>%
  unnest_tokens(bigram, text, token = "ngrams", n = 2)

verne_bigrams

## # A tibble: 350,152 x 2
##    title                           bigram          
##    <chr>                           <chr>           
##  1 Around the World in Eighty Days around the      
##  2 Around the World in Eighty Days the world       
##  3 Around the World in Eighty Days world in        
##  4 Around the World in Eighty Days in eighty       
##  5 Around the World in Eighty Days eighty days     
##  6 Around the World in Eighty Days days contents   
##  7 Around the World in Eighty Days contents chapter
##  8 Around the World in Eighty Days chapter i       
##  9 Around the World in Eighty Days i in            
## 10 Around the World in Eighty Days in which        
## # ... with 350,142 more rows

Zliczanie i filtrowanie bi- i n-gramw

Podobnie jak w przypadku unigramw moemy korzysta z funkcji pakietu dplyr do zliczania poszczeglnych tokenw.

# PRZYKAD 5.3
verne_bigrams %>%
  count(bigram, sort = TRUE)

## # A tibble: 140,364 x 2
##    bigram       n
##    <chr>    <int>
##  1 of the    4492
##  2 in the    1732
##  3 to the    1610
##  4 on the    1304
##  5 it was    1145
##  6 and the    987
##  7 at the     798
##  8 by the     756
##  9 from the   708
## 10 that the   628
## # ... with 140,354 more rows
…
bigrams_sep <- verne_bigrams %>%
  separate(bigram, c("word1", "word2"), sep = " ")

bigrams_flt <- bigrams_sep %>%
  filter(!word1 %in% stop_words$word) %>%
  filter(!word2 %in% stop_words$word)

bigram_counts <- bigrams_flt %>% 
  count(word1, word2, sort = TRUE)

bigram_counts

## # A tibble: 27,348 x 3
##    word1    word2         n
##    <chr>    <chr>     <int>
##  1 cyrus    harding     534
##  2 granite  house       329
##  3 gideon   spilett     292
##  4 phileas  fogg        241
##  5 michel   ardan       200
##  6 lincoln  island      174
##  7 gun      club        109
##  8 replied  barbicane    86
##  9 replied  pencroft     78
## 10 prospect heights      76
## # ... with 27,338 more rows

Jak widac typowe znaczce poaczenia to nazwy wasne (imi + 
nazwisko) lub lokazlizacje. Gdybymy z jakich powodw chcieli dokona 
powtrnego "zlepienia" poszczeglnych sw moemy wykorzysta do tego 
funkcj unite() z tidyr.

# PRZYKAD 5.5

bigrams_uni <- bigrams_flt %>%
  unite(bigram, word1, word2, sep = " ")

bigrams_uni

## # A tibble: 37,030 x 2
##    title                           bigram             
##    <chr>                           <chr>              
##  1 Around the World in Eighty Days eighty days        
##  2 Around the World in Eighty Days days contents      
##  3 Around the World in Eighty Days contents chapter   
##  4 Around the World in Eighty Days phileas fogg       
##  5 Around the World in Eighty Days passepartout accept
##  6 Around the World in Eighty Days ideal iii          
##  7 Around the World in Eighty Days conversation takes 
##  8 Around the World in Eighty Days cost phileas       
##  9 Around the World in Eighty Days phileas fogg       
## 10 Around the World in Eighty Days fogg dear          
## # ... with 37,020 more rows

Rzecz jasna, stosujc podobn procedur rozkadania na poszczeglne 
sowa i usuwania sw kluczowych, moemy rwnie otrzyma n-gramy z n>2n>2, np. trigramy:

# PRZYKAD 5.6

v %>%
  unnest_tokens(trigram, text, token = "ngrams", n = 3) %>%
  separate(trigram, c("word1", "word2", "word3"), sep = " ") %>%
  filter(!word1 %in% stop_words$word,
         !word2 %in% stop_words$word,
         !word3 %in% stop_words$word) %>%
  count(word1, word2, word3, sort = TRUE)

## # A tibble: 9,197 x 4
##    word1     word2    word3        n
##    <chr>     <chr>    <chr>    <int>
##  1 replied   cyrus    harding     42
##  2 exclaimed michel   ardan       26
##  3 replied   gideon   spilett     22
##  4 answered  cyrus    harding     19
##  5 replied   michel   ardan       17
##  6 twenty    thousand pounds      17
##  7 harding   gideon   spilett     13
##  8 gideon    spilett  herbert     12
##  9 observed  gideon   spilett     12
## 10 sir       francis  cromarty    12
## # ... with 9,187 more rows

Analiza n-gramw

Korzystajc z uzyskanego przez nas formatu bigramw atwo jest 
wykona proste zadania eksploracyjne, np. we wszystkich ksikach 
rzeczownik "wyspa" i sprawdzi jakie okrelenia s do niego przypisane:

# PRZYKAD 5.7

bigrams_flt %>%
  filter(word2 == "island") %>%
  count(title, word1, sort = TRUE)

## # A tibble: 23 x 3
##    title                                           word1           n
##    <chr>                                           <chr>       <int>
##  1 The Mysterious Island                           lincoln       174
##  2 The Mysterious Island                           tabor          75
##  3 The Mysterious Island                           desert          5
##  4 The Mysterious Island                           norfolk         4
##  5 Around the World in Eighty Days                 rock            2
##  6 The Mysterious Island                           unknown         2
##  7 Around the World in Eighty Days                 fire            1
##  8 Around the World in Eighty Days                 noble           1
##  9 Around the World in Eighty Days                 uninhabited     1
## 10 From the Earth to the Moon; and, Round the Moon melville        1
## # ... with 13 more rows

Bigram moemy traktowa podobnie jak unigramy, tzn np. policzy dla niego transformacj TF-IDF

# PRZYKAD 5.8

bigram_tf_idf <- bigrams_uni %>%
  count(title, bigram) %>%
  bind_tf_idf(bigram, title, n) %>%
  arrange(desc(tf_idf))

bigram_tf_idf

## # A tibble: 28,064 x 6
##    title                          bigram           n      tf   idf  tf_idf
##    <chr>                          <chr>        <int>   <dbl> <dbl>   <dbl>
##  1 Around the World in Eighty Da. phileas fogg   241 0.0319   1.10 0.0350 
##  2 The Mysterious Island          cyrus hardi.   534 0.0283   1.10 0.0311 
##  3 From the Earth to the Moon; a. michel ardan   200 0.0189   1.10 0.0207 
##  4 The Mysterious Island          granite hou.   329 0.0174   1.10 0.0192 
##  5 The Mysterious Island          gideon spil.   292 0.0155   1.10 0.0170 
##  6 From the Earth to the Moon; a. gun club       109 0.0103   1.10 0.0113 
##  7 The Mysterious Island          lincoln isl.   174 0.00923  1.10 0.0101 
##  8 Around the World in Eighty Da. hong kong       63 0.00833  1.10 0.00915
##  9 From the Earth to the Moon; a. replied bar.    86 0.00811  1.10 0.00890
## 10 Around the World in Eighty Da. sir francis     53 0.00701  1.10 0.00770
## # ... with 28,054 more rows
…
