…
Sownik tidytext

Teraz, oczywicie, kluczow spraw jest zdobycie jakiego sownika, 
ktry powie nam poszczeglne sowa z zawartymi w nich emocjami. 
Bibioteka tidytext udostpnia zbir danych sentiments,
 bdcy de facto zbiorem a czterech oddzielnych leksykonw: NRC, Bing, 
Finn Arup Nielsen i Loughran. Kady z nich w inny sposb opisuje emocje:
 drugi podaje wartoci numeryczne z zakresu \([-5; 5]\), trzy pozostae korzystaj z opisowego okrelenia sentymentu. Do kadego sownika mozna dosta si za pomoc wrappera get_sentiments(). Poniej wypiszemy emocje, ktre zwraca slownik NRC.

# PRZYKAD 6.3

sentiments

## # A tibble: 27,314 x 4
##    word        sentiment lexicon score
##    <chr>       <chr>     <chr>   <int>
##  1 abacus      trust     nrc        NA
##  2 abandon     fear      nrc        NA
##  3 abandon     negative  nrc        NA
##  4 abandon     sadness   nrc        NA
##  5 abandoned   anger     nrc        NA
##  6 abandoned   fear      nrc        NA
##  7 abandoned   negative  nrc        NA
##  8 abandoned   sadness   nrc        NA
##  9 abandonment anger     nrc        NA
## 10 abandonment fear      nrc        NA
## # ... with 27,304 more rows
…
# PRZYKAD 6.6

verne_senti_bing <- verne_books %>%
  inner_join(get_sentiments("bing")) %>%
  count(title, index = linenumber %/% 80, sentiment) 

## Joining, by = "word"

verne_senti_bing

## # A tibble: 1,393 x 4
##    title                           index sentiment     n
##    <chr>                           <dbl> <chr>     <int>
##  1 Around the World in Eighty Days     0 negative      7
##  2 Around the World in Eighty Days     0 positive     15
##  3 Around the World in Eighty Days     1 negative      8
##  4 Around the World in Eighty Days     1 positive     19
##  5 Around the World in Eighty Days     2 negative     12
##  6 Around the World in Eighty Days     2 positive     25
##  7 Around the World in Eighty Days     3 negative      9
##  8 Around the World in Eighty Days     3 positive     31
##  9 Around the World in Eighty Days     4 negative     16
## 10 Around the World in Eighty Days     4 positive     36
## # ... with 1,383 more rows

verne_senti_bing %<>%
  spread(sentiment, n, fill = 0) 

verne_senti_bing

## # A tibble: 697 x 4
##    title                           index negative positive
##    <chr>                           <dbl>    <dbl>    <dbl>
##  1 Around the World in Eighty Days     0        7       15
##  2 Around the World in Eighty Days     1        8       19
##  3 Around the World in Eighty Days     2       12       25
##  4 Around the World in Eighty Days     3        9       31
##  5 Around the World in Eighty Days     4       16       36
##  6 Around the World in Eighty Days     5        6       24
##  7 Around the World in Eighty Days     6       13       22
##  8 Around the World in Eighty Days     7       15       13
##  9 Around the World in Eighty Days     8        9       18
## 10 Around the World in Eighty Days     9       18       26
## # ... with 687 more rows
…
Sowniki dostpne w pakiecie tidytext nie s, rzecz 
jasna, jedynymi dostpnymi materiaami zwizanymi z sentymentem. W 2013 
roku zostaa opublikowana interesujca praca przez Amy Warriner i wsppracownikw, w ktrej zawarto wartoci walencji, pobudzenia i dominancji prawie 14000 angielskich sw. Jak zostao wspomniane na Wykadzie 5,
 walencja i pobudzenie do dwie czsto wykorzystywane skadowe emocji, 
pierwsza mwi o nacechowaniu emocji (negatywna, pozytywna), druga o 
intensywnoci. We wspomnianej pracy dla obu zmiennych pojawiaj si 
wartoci w skali \([1; 9]\). Zbir ma kilkadziesit kolumn, ale nas interesuje jedynie rednia walencja i pobudzenie poszczeglnych sw:

# PRZYKAD 6.7

emo <- as_tibble(read.csv("http://www.fizyka.pw.edu.pl/~julas/TEXT/lab/Ratings_Warriner_et_al.csv", stringsAsFactors = F))
emo

## # A tibble: 13,915 x 65
##        X Word  V.Mean.Sum V.SD.Sum V.Rat.Sum A.Mean.Sum A.SD.Sum A.Rat.Sum
##    <int> <chr>      <dbl>    <dbl>     <int>      <dbl>    <dbl>     <int>
##  1     1 aard.       6.26     2.21        19       2.41     1.4         22
##  2     2 abal.       5.3      1.59        20       2.65     1.9         20
##  3     3 aban.       2.84     1.54        19       3.73     2.43        22
##  4     4 aban.       2.63     1.74        19       4.95     2.64        21
##  5     5 abbey       5.85     1.69        20       2.2      1.7         20
##  6     6 abdo.       5.43     1.75        21       3.68     2.23        22
##  7     7 abdo.       4.48     1.59        23       3.5      1.82        22
##  8     8 abdu.       2.42     1.61        19       5.9      2.57        20
##  9     9 abdu.       2.05     1.31        19       5.33     2.2         21
## 10    10 abide       5.52     1.75        21       3.26     2.22        23
## # ... with 13,905 more rows, and 57 more variables: D.Mean.Sum <dbl>,
## #   D.SD.Sum <dbl>, D.Rat.Sum <int>, V.Mean.M <dbl>, V.SD.M <dbl>,
## #   V.Rat.M <int>, V.Mean.F <dbl>, V.SD.F <dbl>, V.Rat.F <int>,
## #   A.Mean.M <dbl>, A.SD.M <dbl>, A.Rat.M <int>, A.Mean.F <dbl>,
## #   A.SD.F <dbl>, A.Rat.F <int>, D.Mean.M <dbl>, D.SD.M <dbl>,
## #   D.Rat.M <int>, D.Mean.F <dbl>, D.SD.F <dbl>, D.Rat.F <int>,
## #   V.Mean.Y <dbl>, V.SD.Y <dbl>, V.Rat.Y <int>, V.Mean.O <dbl>,
## #   V.SD.O <dbl>, V.Rat.O <int>, A.Mean.Y <dbl>, A.SD.Y <dbl>,
## #   A.Rat.Y <int>, A.Mean.O <dbl>, A.SD.O <dbl>, A.Rat.O <int>,
## #   D.Mean.Y <dbl>, D.SD.Y <dbl>, D.Rat.Y <int>, D.Mean.O <dbl>,
## #   D.SD.O <dbl>, D.Rat.O <int>, V.Mean.L <dbl>, V.SD.L <dbl>,
## #   V.Rat.L <int>, V.Mean.H <dbl>, V.SD.H <dbl>, V.Rat.H <int>,
## #   A.Mean.L <dbl>, A.SD.L <dbl>, A.Rat.L <int>, A.Mean.H <dbl>,
## #   A.SD.H <dbl>, A.Rat.H <int>, D.Mean.L <dbl>, D.SD.L <dbl>,
## #   D.Rat.L <int>, D.Mean.H <dbl>, D.SD.H <dbl>, D.Rat.H <int>

emo <- emo %>% 
  select(word = Word, valence = V.Mean.Sum, arousal = A.Mean.Sum)
emo

## # A tibble: 13,915 x 3
##    word        valence arousal
##    <chr>         <dbl>   <dbl>
##  1 aardvark       6.26    2.41
##  2 abalone        5.3     2.65
##  3 abandon        2.84    3.73
##  4 abandonment    2.63    4.95
##  5 abbey          5.85    2.2 
##  6 abdomen        5.43    3.68
##  7 abdominal      4.48    3.5 
##  8 abduct         2.42    5.9 
##  9 abduction      2.05    5.33
## 10 abide          5.52    3.26
## # ... with 13,905 more rows
…
