…
Wystpujcy parametr ββ jest tym samym, co wspomniane prawdopodobiestwo a posteriori. Na jego bazie, porwnujac log(β1/β2)log⁡(β1/β2) moemy pokaza ktre sowa maj najwieksz rznic w przynaleznoci do poszczeglnych tematw.

# PRZYKAD 8.16

library(tidyr)

beta_spread <- ap_topics %>%
  mutate(topic = paste0("topic", topic)) %>%
  spread(topic, beta) %>%
  filter(topic1 > .001 | topic2 > .001) %>%
  mutate(log_ratio = log2(topic2 / topic1))

beta_spread

## # A tibble: 198 x 4
##    term              topic1      topic2 log_ratio
##    <chr>              <dbl>       <dbl>     <dbl>
##  1 administration 0.000431  0.00138         1.68 
##  2 ago            0.00107   0.000842       -0.339
##  3 agreement      0.000671  0.00104         0.630
##  4 aid            0.0000476 0.00105         4.46 
##  5 air            0.00214   0.000297       -2.85 
##  6 american       0.00203   0.00168        -0.270
##  7 analysts       0.00109   0.000000578   -10.9  
##  8 area           0.00137   0.000231       -2.57 
##  9 army           0.000262  0.00105         2.00 
## 10 asked          0.000189  0.00156         3.05 
## # ... with 188 more rows
…
